ID,InxName,Name,Step,DemandSk,UseClass
6460,ThunderBolt01,Thunder Bolt,2,,0
7432,LightBurst02,Ascension [02],2,LightBurst01,34
7433,LightBurst03,Ascension [03],3,LightBurst02,34
7434,LightBurst04,Ascension [04],4,LightBurst03,34
7435,LightBurst05,Ascension [05],5,LightBurst04,34
8015,Benediction02,Benediction [2],2,Benediction01,13
9210,KamaAtkSkill1,???,1,,0
9477,KBoogyEntangle,???,1,,0
9478,KBoogyToggle01,???,1,,0
9479,KBoogyToggle02,???,1,,0
9480,BombBoogy01Bomb,???,1,,0
9481,BombBoogy02Bomb,???,1,,0
9482,BombBoogy03Bomb,???,1,,0
9485,ECrabAtkSkill,???,1,,0
9486,ECrabSpine01,???,1,,0
9487,ECrabSpine02,???,1,,0
9488,ECrabStun,???,1,,0
9489,ECrabGum,???,1,,0
9491,VLeviathanBlind,???,1,,0
9492,VLeviathanCry,???,1,,0
9493,VLeviathanPoison,???,1,,0
9497,EggBuff,???,1,,0
9583,KebingKnockBack,???,1,,0
9903,EntrapFlowerWide01,Entrap Flower Wide,1,,0
9904,BlindFlowerWide01,Entrap Flower Wide,1,,0
9905,SlowFlowerWide01,Entrap Flower Wide,1,,0
9906,BloodFlowerWide01,Entrap Flower Wide,1,,0
9907,ShockFlowerWide01,Entrap Flower Wide,1,,0
9908,SlowShot_arrow01,Slow Shot arrow,1,,0
9908,SlowShot_arrow1,Slow Shot arrow,1,,0
9909,ShockFlowerWide02,Entrap,1,,0
9910,ShockFlowerWide03,Entrap,1,,0
9911,ShockFlowerWide04,Entrap,1,,0
9912,ShockFlowerWide05,Entrap,1,,0
9913,ShockFlowerWide06,Entrap,1,,0
9914,SlowShot_arrow02,Absolute Arrow [02],1,,0
29459,DT_Guardian01_PowerHit01_N,???,1,,0
29460,DT_Guardian02_TripleHit01_N,???,1,,0
29461,DT_Guardian03_HarmDefect01_N,???,1,,0
29462,DT_Guardian_GreatSwing01_W,???,1,,0
29463,DT_Airi_MagicBall01_N,???,1,,0
29464,DT_Airi_Inferno01_W,???,1,,0
29465,DT_Airi_FrostNova01_W,???,1,,0
29654,KDFargels_Guard01_PowerHit01_N,???,1,,0
29655,KDFargels_Guard02_TripleHit01_N,???,1,,0
29656,KDFargels_Guard03_HarmDefect01_,???,1,,0
29657,KDFargels_Guard_GreatSwing01_W,???,1,,0