ID,Name,ItemAuctionGroup
40631,Hellgait's Shield,390
57143,Succubus Queen's Shield,390
57319,Andras Shield,19
57320,Marbe Shield,20
57870,Kobold Shield,19
57871,Crawler Shield,20
58057,Hyperion Shield,19
58058,Mace Shield,20
862,Tainted Hellgait's Shield,390
11844,Demonic Queen's Shield,390
62399,Solar Eclipse Chain Shield,20
62401,Solar Eclipse Kite Shield,20
62402,Solar Eclipse Targe Shield,20
62945,Nightmare Queen's Shield,390