Type,Title0
1,Fiesta Hero
2,Supreme Cleric
5,Filthy Rich
12,Guild War Participant
13,Effort Maker
14,Guild War Apprentice
15,Rookie Guild
25,Beginner Vendor
26,Beginner Auctioneer
33,Capable Master
35,Shack Resident
36,Rookie Host
37,Rookie Pet Trainer
38,Lousy Pet Trainer
39,Rate Item Sampler
44,Anonymous
49,HP Rookie Alchemist
50,SP Rookie Alchemist
51,GS Rookie Alchemist
52,PS Rookie Alchemist
53,US Rookie Alchemist
54,Rookie Miner
55,Rookie Lumberjack
56,Rookie Gatherer
59,Dice Game Opener