<?xml version="1.0" encoding="UTF-8" standalone="no"?>
<!-- Created with Inkscape (http://www.inkscape.org/) -->

<svg
   xmlns:dc="http://purl.org/dc/elements/1.1/"
   xmlns:cc="http://creativecommons.org/ns#"
   xmlns:rdf="http://www.w3.org/1999/02/22-rdf-syntax-ns#"
   xmlns:svg="http://www.w3.org/2000/svg"
   xmlns="http://www.w3.org/2000/svg"
   xmlns:xlink="http://www.w3.org/1999/xlink"
   xmlns:sodipodi="http://sodipodi.sourceforge.net/DTD/sodipodi-0.dtd"
   xmlns:inkscape="http://www.inkscape.org/namespaces/inkscape"
   width="16"
   height="16"
   viewBox="0 0 16.000001 16"
   id="svg2"
   version="1.1"
   inkscape:version="0.91 r13725"
   sodipodi:docname="refresh-icon.svg">
  <defs
     id="defs4" />
  <sodipodi:namedview
     id="base"
     pagecolor="#ffffff"
     bordercolor="#666666"
     borderopacity="1.0"
     inkscape:pageopacity="0.0"
     inkscape:pageshadow="2"
     inkscape:zoom="22.972096"
     inkscape:cx="14.734132"
     inkscape:cy="8.1939816"
     inkscape:document-units="px"
     inkscape:current-layer="layer2"
     showgrid="false"
     inkscape:window-width="1920"
     inkscape:window-height="1027"
     inkscape:window-x="1912"
     inkscape:window-y="472"
     inkscape:window-maximized="1"
     units="px" />
  <metadata
     id="metadata7">
    <rdf:RDF>
      <cc:Work
         rdf:about="">
        <dc:format>image/svg+xml</dc:format>
        <dc:type
           rdf:resource="http://purl.org/dc/dcmitype/StillImage" />
        <dc:title></dc:title>
      </cc:Work>
    </rdf:RDF>
  </metadata>
  <g
     inkscape:label="Calque 1"
     inkscape:groupmode="layer"
     id="layer1"
     style="display:none"
     transform="translate(0,-1036.3622)">
    <image
       y="223.79079"
       x="51.428596"
       id="image4144"
       xlink:href="data:image/png;base64,iVBORw0KGgoAAAANSUhEUgAAAgAAAAIACAYAAAD0eNT6AAAABGdBTUEAALGPC/xhBQAAAAFzUkdC AK7OHOkAAAAgY0hSTQAAeiYAAICEAAD6AAAAgOgAAHUwAADqYAAAOpgAABdwnLpRPAAAAAZiS0dE AP8A/wD/oL2nkwAAAAlwSFlzAAALEwAACxMBAJqcGAAAWzBJREFUeNrt3Xt4HFd9P/73mV3dLOtq A5EMudiGUEwSS7uyYxxAhSRACIFSDAmXAIGQFvqF8m2B0kKh9Aal/ZZeKJcWyi2BxOUS+oOEsCQC EuzE2pXtXCAhN0iiTUgi62bruvP5/eFdMxrNaudoV9I5M+/38+RxtHPOa3TmjPacmdmdARiGYRiG iV1ULZBzz+0/4WQyA0KPHj169OjRM9tL1mrFtQg9evTo0aNHb3W8ZQPFlXvrSzWzGXr06NGjR4/e 6nnLOgNw7rn9jv+1KhtDjx49evTo0VtFT/sMQHHl/pmHW2Vj6NGjR48ePXqr6GmdATj33P6E/7Uq G0OPHj169OjRW2UPCDkBKF5vWDTzALCsldOjR48ePXr0Vt/zmJUnAMWCiYBF7nKuO9CjR48ePXr0 Vt/zmAAqfAbAs3L/zKNQZWPo0aNHjx49eqvkFU3H41Q8A+AEvFZNY5L06NGjR48evdXziuaC8TyT GZDkEoX9Mw8AmK9xY+jRo0ePHj16K+stOPIvJVmmgv/Iv9rTGKZvHHr06NGjRy+K3qLxvGQ5ARX8 nzYEOPjTo0ePHj16tnmLzuR7rWRABW8E1X160fSNQ48ePXr06EXR8397YNFNgxxfBf8EgIM/PXr0 6NGjZ5/nP/JfdN+Ach8CXPbtBS3aOPTo0aNHj17UPclkBgpB5R1PpRPh4E+PHj169OhFwis7ngfN FKq5u5CNG4cePXr06NGLmlfx23uLbgygu2KLNw49evTo0aMXVa/it/cUqozFG4cePXr06NGLrVfV BMC0xtCjR48ePXr0wnnLngCY2Bh69OjRo0ePXrgsawJgamPo0aNHjx49euGiPQEwuTH06NGjR48e vXDRmgCY3hh69OjRo0ePXriEngCY3hh69OjRo0ePXviEmgCY3hh69OjRo0ePnpa5+HHAZQomAhYZ 0Rh69OjRo0ePnpYJoMIZAM/g7y9nRGPo0aNHjx49eqHN0kG/AJXPAAQtN6Ix9OjRo0ePHr3Q5qJb /yeXKMwjf3r06NGjR89+b8GRfynJMhX8R/6CEA8WsHjj0KNHjx49elH0Fo3nJcsJqOBg8ZE/B396 9OjRo0fPLm/RmXyvlQyo4I0AcA1qDD169OjRo0evsuf/9p5kMgOu9wXHV8E/AeDgT48ePXr06Nnn +Y/8XX/Zch8ClKDCEds49OjRo0ePXtQ9yWQGCkHlHU+lE+HgT48ePXr06EXCKzueB80Uqrm7kI0b hx49evTo0YuaV/Hbe4tuDKC7Yos3Dj169OjRoxdVr+K39xSqjMUbhx49evTo0YutV9UEwLTG0KNH jx49evTCecueAJjYGHr06NGjR49euCxrAmBqY+jRo0ePHj164aI9ATC5MfTo0aNHjx69cNGaAJje GHr06NGjR49euISeAJjeGHr06NGjR49e+ISaAJjeGHr06NGjR4+elrn4ccBlCiYCFhnRGHr06NGj R4+elgmgwhkAz+DvL2dEY+jRo0ePHj16oc3SQb8Alc8ABC03ojH06NGjR48evdDmolv/J5cozCN/ evTo0aNHz35vwZF/KckyFfxH/oIQDxaweOPQo0ePHj16UfQWjeclywmo4GDxkT8Hf3r06NGjR88u b9GZfK+VDKjgjQBwDWoMPXr06NGjR6+y5//2nmQyA673BcdXwT8B4OBPjx49evTo2ef5j/xdf9ly HwKUoMIR2zj06NGjR49e1D3JZAYKQeUdT6UT4eBPjx49evToRcIrO54HzRSqubuQjRuHHj169OjR i5pX8dt7i24MoLtiizcOPXr06NGjF1Wv4rf3FKqMxRuHHj169OjRi61X1QTAtMbQo0ePHj169MJ5 y54AmNgYevTo0aNHj164LGsCYGpj6NGjR48ePXrhoj0BMLkx9OjRo0ePHr1w0ZoAmN4YevTo0aNH j164hJ4AmN4YevTo0aNHj174hJoAmN4YevTo0aNHj56WufhxwGUKJgIWGdEYevTo0aNHj56WCaDC GQDP4O8vZ0Rj6NGjR48ePXqhzdJBvwCVzwAELTeiMfTo0aNHjx690OaiW/8nlyjMI3969OjRo0fP fm/BkX8pyTIV/Ef+ghAPFrB449CjR48ePXpR9BaN5yXLCajgYPGRPwd/evTo0aNHzy5v0Zl8r5UM qOCNAHANagw9evTo0aNHr7Ln//aeZDIDrvcFx1fBPwHg4E+PHj169OjZ5/mP/F1/2XIfApSgwhHb OPTo0aNHj17UPclkBgpB5R1PpRPh4E+PHj169OhFwis7ngfNFKq5u5CNG4cePXr06NGLmlfx23uL bgygu2KLNw49evTo0aMXVa/it/cUqozFG4cePXr06NGLrVfVBMC0xtCjR48ePXr0wnnLngCY2Bh6 9OjRo0ePXrgsawJgamPo0aNHjx49euGiPQEwuTH06NGjR48evXDRmgCY3hh69OjRo0ePXriEngCY 3hh69OjRo0ePXviEmgCY3hh69OjRo0ePnpa5+HHAZQomAhYZ0Rh69OjRo0ePnpYJoMIZAM/g7y9n RGPo0aNHjx49eqHN0kG/AJXPAAQtN6Ix9OjRo0ePHr3Q5qJb/yeXKMwjf3r06NGjR89+b8GRfynJ MhX8R/6CEA8WsHjj0KNHjx49elH0Fo3nJcsJqOBg8ZE/B3969OjRo0fPLm/RmXyvlQyo4I0AcA1q DD169OjRo0evsuf/9p5kMgOu94Wkr4J/AsDBnx696Hhq27ZtdYlEos5xnDqlVB0AiMhcIpGYbWlp mR0YGJiPUHvp0Yu7d6K+f/AHPAO+fwIQVNiAxtCjRw9AKpXaCKBLRDYppZ7uOKobwEmu624QQSuA VqVUG4DSf01l1uuPC2AOwCyAKQCjAI4AeFIpNSIiR4r/PikijwD4lYj8emho6HGbth89ejHxBMeP /AtB5ZWn0omfOfjTo7f2XiqV6gLwbBF5puM4W0VkK4CtALYAWKe7/hXOFICHROTXSqlfKaXucV33 53V1ybsdBw82N6/zts/K/qBHz0JvyQ/w+ycAWM6KLd449Oituffggw/Xt7a2PhfAmY7jnCkiZwE4 A8BG3fUYmmMA7gHwcwC3i8hQQ0PDbfv27RsJC9jcv/TorZFX8dt7CyYAHPzp0Vt5b2RkfFMikdhZ KBR2KqV2AegFUK/rRiD3AbhNRG5LJBK3NTc35wYGBqb9hWzrX3r0bPEUqoxJjaFHz0RvZGRso1LO uUrhpSL4XQDP0HVikjkROaCUuhHAjWNjYz879dSnz8Lw/qVHz1avqgmAaY2hR88QT/X09KQcx3mZ iLxMKbUDwQ/UYpbONIB9jqMGRPCjQmF2cMOGThdr37/06EXCW/YEwMTG0KO3Vl4qldooIi9xHOel IvISAE/R/R2YinkMwP8nIt9pbW3NBF0uKBfT9hd69EzwljUBMLUx9OitptfT03OKUuoNAF6llEoh xOO1mZrlKIAbAFxbX1//v0t9oNCU/YUePdM87QmAyY2hR2+lvZ07d7YWCoU9ruu+SSn1AtTgczRM 1ZlTSl3vuu6VDQ0N3923b99UacFa7y/06Jnsab15md4YevRWwtuzZ0/igQceON913UuVUq/E8Zvq MGZmHMC3HMe58r777r2pt/csPtKcHr0yCT0BML0x9OjV2kun0z3FI/1LAJykuw5mzTPsOOorIvJf 7e0tvy6+Zs3+R4/eSnmlhJoAmN4YevRq5eXzjzc3NjZeBuDtOH4zHsb+uACuA/DZbDb7/eLPoWPz /kyP3hJm5QlAsWAioKwRjaFHrxbeyMjYUwH1bqXUOwC067qMNXkQwOfn5ua+cPjw4d9UKmzr/kyP XgUTQIUJAAd/elH3RkcnzhDBewBcAqBO12SszbRS6iuu634yl8vdG1TAxv2ZHr0KZukzMQJUngCU Bn9vOSMaQ49eNd6RIxPnA/hjAOfqWkyk4orItxOJxCcOHDhwoPSibfszPXohTO8HYiWTGRC1RGHv kX/pXyMaQ4/ecryJiaP18/PuxTg+8D9X12EinwER+XhnZ+sNsGB/pkdPw1tw5I+lJgDFmYL/yL9g UGPo0QvtuS4axscnLxeRDwLo0jWYeEVE9jmO85H29vUDnpeN2Z/p0dP0Fhz5ozj4AwGXADyDv3c5 B396Vnqjo5OvE5G/BrBVtz4T+9wE4C87OlpuMWV/pkdP0ys9g8R75H/iWzAqoIL/yN81qDH06IVK Op3+XRH5BIA+3boM48v3HMf50IEDBw6GrWD63we9WHjeB5CVjvwXfAVW+Sr4j/w5+NOzykulUmeI yCeUUi/T/T0YZomIiHxNRP5saGhoeKmCJv990Iud5z3yL/jLlpsAwD9TMKQx9OgFJpVKnQzgrwG8 EXwoD7NyOQrg4y0tLf8Y9DRCU/8+6MXWKx35F4LKK0+lEz9z8Kdni7d9+/b2RCLxIQB/BKBB93dg mGXm1yLy/lwud3XpBRP/PujF3hMs8Rk+/wQAVd5dyLaNQ89iL5VK7QHwr+B9+pm1y80A3tnR0XIH DPv7oBd7b8nBH/CdKuXgT88Gb+fOnU9Pp9PfBXANOPgza5tzAGRHRyf+3nXR6FsWib83etZ6Fb+9 V/FZAAY1hh49J5VKvQvA3wJo0V03w6xw7hORd3V2tt6IaPy90Yu4l6xUwKbG0Iuul06nnysi/wng bN31MswqZYtS6vojRya+nEgk/gTAkzqVTfp7oxcPb9lnAExsDL3oef39/Y2Tk5MfFpH3gQ/rYezJ 40qpywcHB68NU9iUvzd68fKWNQEwtTH0ouWl0+l+Efk8gGfqrpNhTIhS6r8bGhrec8stt0yUK2PK 3xu9+HnaEwCTG0MvGl4qlaoD8HcA/gQ1+JwKw6xxHhCRN+dyuZ/6F5jw90Yvvl5Cp7DpjaFnv7dj x47TROT7APaAgz8TjXQopd7c1dXV3NnZ+ZPHH3+8AJjx90Yvvh6g8QZremPo2e/19va+Vin1eQBt uutjGEuScxxnT1tb8wOI2N8vPXu8UkJNAExvDD27vV27djXNzs7+C4DLddfFMBZmDMDbOzpa/B8Q tPLvl55dnsesfAnA81Qh/2TBiMbQs9vr6+vbNj8/fwOAl+qui2EsTSOA187OzrUBuCmZTLiw9O+X nl2exwRQ4QwAB396K+n19va+Qyn1KQBNuutimIjkVsdxXnvgwIFf61Zc679fenZ5RbN0918BKj81 LWi5EY2hZ6+3e/fullQqdbVS6nPg4M/EOztd182lUqnf1akUpfcDeivvFc1Ft/5PLFHYe+Rf+teI xtCz1+vp6TmlUCj8CIDWGx7DRDjrALx+06ZNvxkeHs5WKhyl9wN6q+Nt3nzqojP599//YPBnAIoz BeWrUPHBArZuHHqr4/X29p7tOM6PAGzWXQ/DRDwJABd2d3dvOOecc2646667Av8Wo/R+QG/VPP+Z fClZKqCCg8VH/hz86VXlpdPpi0Xkv4FFT0xjGGZhbigUCq87ePDgqPfFKL0f0Fs1r3SQX6ovmcyA WyrjBFTwpuLzhC3fOPRW58j/IyJyFTj4M0yYnJ9IJPanUqktpRei9H5Ab9U8/xn+BYM/4DkDUKzg P/J3DWoMPcu8rVu3NrS1tX0RwOt118EwDH4jIhd0drbmEIH3A3pr4nmP/Av+suUeB7xopmBIY+hZ 4p155plPTSaT3wbwPN11MAwDAHiqUmpgfPzYa1pb193oW2bV+wG9NfUCB3+geAnAf+qfgz+9ary+ vr5tdXV1tyqlOPgzTHVZXygUvjs2dvR1ntesej+gt+Ze2fE86NOBHPzpLdvr6+t7nuu6twA4VXcd DMMEpt513a+MjU2+B5a9H9BbU6/iZ/gW3RhAd8UWbxx6Nfb6+vpe6LruD8CH+TBMraNcVz45MjL+ 17oVo/L+Qk/bq/gB/qoft2rxxqFXQy+dTp8nIteCd/ZjmJXOx7PZ7AfDFIzK+wu9lfEqPgzIpsbQ WxsvlUq9HMB3wK/5Mcxq5JxNmzY1Dw8P/3CpQlF5f6G3ct6yJwAmNobe6nu9vb2vVkr9D4B63XUw DLPs7O7q6mrL5/M/CFoYlfcXeivrLWsCYGpj6K2ul06nLwZwFYA63XUwDFNdlFK7uru7O/L5/PXe 16Py/kJv5T3tCYDJjaG3el4qlXozgK+gystIDMNUlbO7u7tb8/n8DUB03l/orY6n9SFA0xtDb3W8 3t7ey4uP8q36Q6QMw9Qkf9nR0fI3iMD7C73V8QCNN3DTG0Nvdbx0On2piHwJHPxtySSAEQDTpf9E ZFopVfr/OcdxlOu6SaVUg1KqSURaALTi+Nc5O8CzPFZEKfXe9vb1n/a9bNX7C73V8UoJ9SZuemPo rY6XTqdfJiLfLVOWWf3MALgHwC9E5B6l1LBS6jEAj4rIo3Nzc48ePnz4aJX7i0qlUhtc1z3VcZzT lFKnichpOP5I580ATgY/AGpKxHGct7W1NX+t+LNV7y/0VsfzmJUnAJ6nCvnLGtEYeqvjpdPpHSJy I4Bm3XUwNcl9APaLyCEAPwfwiy1btjywd+/ewlKVVnp/efLJEaexcV3X/HzhVNd10wB2AjgbwNPX eoPFNAUAF3d0tHzTpvcXeqvjeUwAFSYAHPzpAcCOHTueVSgUbgGwUXcdzLJyTCmVBWS/Us7+2dnZ Ww4dOvSYLrKW+99ZZ521KZFI7HQc52wRORtACsC6tdmcscsMgHOz2ezNOpWi8n5Fb0mzdPdfASpP AEqDv7ecEY2htzpeKpXqAvAz8N7+K527lMIPRHB9U1PDzY2N9XPF163aX8qlv78/OTY2tj2RSFwo Iq8EsH1FtybzhIjsyuVy94YpbNr+Qm9FB3/g+HN/RC1R2HvkX/rXiMbQWx1v586drfPz8z8BcJbu OpiKmQaQAfB913Wv27Ch7ZGAMlbtLzre2NjR0wC8wnXdCwG8ELyXxErknvr6+l379u0bWaqQDfsL vaq9BUf+WGoCUJwp+I/8Kz5YwOKNQ8/nbd26taGtre16AP2662DKxi1+juIqpdS3stnsWFT2l2q8 iYljrYWCe56IXATgQgAty9m4zOIopX4yNTV13p133jkbtNzG/YWetrfgyB/FwR8IuATgGfy9yzn4 x8tzUqnU1QBeo7sOZnGUUoOu616plLo6m83mS69HaH+pmbdt27b1DQ0Nr1dKXQGgV3cdzOIopb42 ODj4Jv/rUdhf6FX0Sl/h9R75u6UyKqCC/8jfNagx9FbBS6VSnwLwHt11MAtyDMCVIvLvuVzusH9h lPaXlfJ6enrSjuP8AYCLwW+fVBWl1IcGBwf/tvSzCf1Lb8U97/07Skf+rrec8lXwH/lz8I+Zl06n 3yQiX9FdB3Mi9wH4j0Kh8MWDBw+OBhWI0v6yGl7xsyhvBHAFgDN1188AOH756YJcLvcD0/qX3op6 3iP/RV8ZLjcBgH+mYEhj6K2g19fXt9113Z8BaNJdT9wjIj9WSn0ym81eB6Ds306U9pe18Hp7e1/g OM5HRORFunUZjBQKhfTGje0PBywzon/p1dwrHfkH3i8k6al0Ihz84+ft2rWrc3Z29lvg4K+bH4rI X+dyuZ9WKhil/WUNvX0AXjoyMv58pdRf4vg3CJhw6UwkEt9yXbzAcTDted2k/qVXe6/seO74fhYO /rH0nNnZ2asAnKa7nhjneyKyK5vNns/Bf/W9zs7Wn3Z0tJynlHqRUuonul6Ms318fOLfPT8b2b/0 auIJKnyAf8EEoMpbC9q2cegV09vb+zEAL9FdT0xzo4iks9nshblcbn+YCmvdv1H2BgcHbxocHHyh iLwYgNad7+IaEVw6Nnb0cljQv/Sq8ip+e6/qJ7pZvHHoAUin068UkW+DT/erlF8qpd43ODh4rU6l te7fuHnpdPoCEflXAFt01xWzTAPYkc1mb9eptNb9S6+2nlOpgE2Noafn7dix41nFT/xz8C+fUaXU /wWwjYO/+d7g4OD3W1pangvgYzh+T3wmOI0Avr5r167Qn/kxoX/p1dZb9hu/iY2hF97btm3b+sbG xlsBPEd3XTGJKKW+kEg4H7z11tue0K281v1LD9i+ffszE4nEpwGcp7v+GOUz2Wz2nZUKmdi/9Kr3 lnUGwNTG0AvvNTY2fhYc/MvllyLy4vb29e/g4G+vd/DgwV9ms9nzReRiAMO6v0dM8oepVOpVSxUw tX/pVe9pnwEwuTH0wnmpVGoPgGt01xWDzCuFf2ppafmbRAJHbe1feou92dn5lqmp6Y+4rvwRqrz0 GcE8OT8/f9ahQ4cWPZDKlv6ltzxP6w/B9MbQq+z19fWdBOAzuuuKQYYSicSu9vaWD3Pwj55XX5+c aGtb/6cAXgogr2tFPBvq6uq+7H/Rpv6lt7xv8IWeAJjeGHrhPNd1/xPABt31RTiuUviHtraW3a2t 6w7B8v6lt7TX0dGScV33LADf1zWjHBF5cW9v7ztKP9vav/T0EuoSgOmNoRfOS6fTl4nIF3TXF+E8 KiJv6exsvbH4s9X9S0/LU6lU6v8C+HsAdbrriGjGHcd5bltb88Owv3/pVTYrTwA8TxXylzWiMfTC eT09Pac4jnM7+Kz1Uq5zHPX2trb1jxd/trp/6S3PKz5x8BvgfQMAAEqp69vb118UsMjK/qVX1gRQ 4RIAB//IeMpxnC+Bgz8AzDuO8776+sSrOPjTGxoaGmxsbOwBcKXu+qIYEXnpkSMTl/petrZ/6S0y HXjGc1WhcGnw95YzojH0wnupVOo9AD6lu84I5gnHcS5pa2v+sec16/uXXm284iWBT4LfEjiSSDjb W1ub84hQ/8bZK5re/VoymQFJLFHYe+Rf+teIxtAL76XT6dMB7AWvc94ByHnt7S2HPK9Z37/0aufl 8/l9XV1ddyilLkK8/16aROTkpqaGq6PUv3H2Nm8+ddGZ/PvvfzB4puubKQDHnypkTGPohfYcEfky +Ijf7wDuCzo6Wn/leS0K/Uuvxl5nZ+u3lVLnAfiNbt2I5ffHxo6+WLeS6f0bUy/oqb+CgAWLrhEU U/GpQhZvnMh6vb29bwOwU3e9UYpS+Nv6+sTrOjraJj0vR6J/6a2M196+/rZkMvF8APfoGlGK67r/ lkqlQp8JsaV/Y+YtOvL3Wk5ABW8EHPyt9LZv396ulPpb3fVGKC6Ad7a3t/xVc/M67/aKRP/SW1mv pWXdAyLuOUqpn+haEcqzlVLvDVPQtv6Niee/xC+ZzIDrfcHxVfBPAFyDGkNPw0skEh8D8BTddUck M47jXNLR0fJfvtcj07/0Vt7r7Gx7Ympq6jwAV+maUYmIfHjnzp1PX6qMrf0bA89/5O/6yybLGBJU OGIbJ7JeOp1+roj8oe66I5IJAL/f1tY84Hs9Mv1Lb1W9WQBvSqVS8wAu1cKjkfXz8/P/BOB1QQsj 0L9x8CSTGSgElXc8lU6Eg7/dnoj8C8pP7qKcx5XCeR0dLQO+1yPVv/RW3XOz2exbEd97Bbw2nU7v 9r8Yof6Nuld2PA/6dCAHf4u9dDr9GgAv0l1/BPJ4IpE4r729Jed7PVL9S2/NPHfz5s1vVkpdrbuu KMR13X/w/mxAf9Cr7FX8DN+CCUCVtxa0beNEztu1a1eTiPyj7vojkBGl8NLW1nV3+V6PVP/SW1tv 7969hfXr179RRL6pu07bo5R6XiqVehVgTn/Qq+hV/AB/qIcBGdIYehWSTqc/KiIf0f0dLM+oUuol 7e3rh3yvr3l/0IumV/xq3F4Ar9Rdv+X5xSmnnHzG+PiRoHEjMv0bJy9RqYBNjYmzt3379lOVUl8v 40U1Y4lE4oK2tmae9qe3al4+n3c7Ozu/lUwmewA8S/f3sDgbx8bGHm1qauDfW0S8Zd/z2sTGxNlL JpN/DaBRt57FmUokEhe1tq4b9L1uRH/Qi7bX1fWUOdedv1gptV+3ruX5y6NHp9Z5fjaiP+gtz1vW BMDUxsTV27Fjx+kicoluPYvjAri0tXXdPt/rRvQHvXh4GzZ0zNbV1e0B8JCuYXFOmp9331n8f6P6 g56+pz0BMLkxcfUKhfkPo8rLOZbl/R0dLdf6XjOmP+jFx2tubngMkN8DcFTXsjWu677n2LHZOhP7 g55etCYApjcmjt7IyPizAXWxbl1boxT+raOj5V99LxvTH/Ti53V0tOZE5E04/rWrOORpMzMzl+tW srV/o+oBGkeNpjcmrt7MzOw/AtiuW9/GKKW+XSjMXbFuXRPv7U/PKC+fz/+iq6trTiml/QQ9S3NG c3Pzp0dGRgphCtvev1HzSgk1ATC9MXH1Rkcnt4jgM6jiw5wW5fC6dU2vbGlpnvO8ZlR/0Iu3l8/n f7pp06atAM7UXYeFaW1sbHwkn88PVioYlf6NilcyN28+VVUcOMo8VciYxsTbkw8iHtf+Rx3HeW1D Q3LK85qB/UEv7t7o6OjbAcTlmwEf6O/vX/Jrx2vdH/TKmgAqHDl6Bn//jR+MaEycvYmJY6eJ4PW6 hoURAJe1tTXf73nNuP6gRw8A7r333hkcf3DOmO76LMypk5OTZb99ZEJ/0FtkOvCM55XOAAQtN6Ix cffm5+c/WMaPVBxHfaKjo+X/87xkZH/Qo1dKNpv9tYi8S3edNkZE/jjodZP6g94Jc9Gt/9UShb1H /qV/jWhM3L3JyalT5+bm70LEJwAi8iOR+Zdv2NBZekCVkf1Bj15Qent7v65ULL6h8/xsNntz6QdT +yPmXmnwL9WXTGZAkmUqLHpKIEI8WMDijWOVt35904MA6k39/ejRowe4rvuHiURiN4Bn6P4eNqV4 FuBmwOz+iLEX9NRfAQIeBuS7RlD6l4M/PXr06Gl6R45MnAvgB6jBg9cMTsF13S0bNrT9Gob3Rwy9 0ofEvUf+pTOqCz9BXqxQ+q8U16DG0KNHj541XlNTw4MzM7OtAM7WNSyK4zjOXGNj/UDAMqP6I2ae /xtiCwZ/wDPQewZ/7+sc/OnRo0evCm9kZLRBqcTPAJyha1mU0fr65KnNzU3HPK8Z2R8x87xH/otu 2lTuQ2SLZgqGNIYePXr0rPI6O9tnRkcn3yIiBxDdm3a1z8+7rwbwteLPxvZHDL3AwR8o7ozeGwMA AAd/evTo0audNzg4mFNK/ZeuaVNE5K2l9preHzHzyo7nQZ8O5OBPjx49ejX2ROQvABzRtW2JiDx/ ZGT8VFv6IwZexW/vLboxgO6KLd449OjRo7dqXjabfQLAR3R9m6KUeqtunaj0r4FexW/vVf3VFIs3 Dj169Oitqrdnz57E/ffffxDAc3XXZUmGN2/efPLevXv5lEALvKo+kGJaY+jRo0fPZK84ML5bd10W pfv+++9/aZiCJvRH3L1lTwBMbAw9evTome5ls9mbAPyP7jotyqWVCpjUH3H2ljUBMLUx9OjRo2eJ 9ycApkKWtS0vT6VS68otNLQ/YulpTwBMbgw9evTo2eBls9lfK6U+p7t+S9KslLogaIGp/RFXT2sC YHpj6NGjR88Wb35+7p8AzOrWsyEi8lr/a6b3R9w8QGMCYHpj6NGjR88mb+PGjsccR31Ft64lWXAZ wIb+iJNXSjJMIdMbQ48ePXo2eo7jfNJ1C2/F4ge32J51InIhgGts6o84eB6z8n0AigUTAWWNaAw9 evToVeE56XQ67bruC5VS20XkmUqpTQA6ATTqrp9ZtcwBmADwGwD3A7gdwP5kMnnjrbfeOh4WMWD/ W1XPYwKoMAHg4E+PHr0oen19fc8Qkf8jIm8E0KW7LsbYzAL4vuM4nz5w4EBmqYJR2p81zNJlfwEq TwBKg7+3nBGNoVdbb2xs8rkiOA/AThF5NoCTADQAmAbwqFLqbgC3ish12Wz2dtvbSy+eXn9/f+PE xMRHAbwXQL3uehirMpBIJK647bbb7vEviMr+rGl6P/MnmcyAqCUKe4/8S/8a0Rh6tfFcF43j45Nv FpE/ALBNg7gTwL+3tLR8aWBgYNqW9tKLt5dKpU4G8L8AztRdB2NtjorIJblc7n9LL0Rlf9b0Fhz5 Y6kJQHGm4D/yr/hgAYs3Tuy8I0cmLgHwdwA26RqePKSUen97+/pvmt5eevH2UqlUF4BbAJymuw7G +swrpS4YHBz8YVT2Z01vwZE/ioM/EHAJwDP4e5dz8I+INzo6eZKI/BeAC3TrL5Hv1tfXXdHc3Pik ae2lRw+A6u3tvUkp9ULddTCRyRNK4Tnt7S2jActs2591vNK3S7xH/m6pjBNQwRsBB//IeKOjk30i MojaDv4AcNHs7Nz+8fFjzzGpvfToAUA6nb6Yg3/ssxHABwNet25/1vD8Xy1dMPgDnglAsYJ/AuAa 1Bh61Q3+LxaRHwHo1q0fMqcUCoWB0dHJPhPaS49eKa7rvld3HUz0IoJLXXfBfmPl/qzhLRjP/YM/ UP5OgJLJDPDIPyLe6OjkC0TkWgDrdetrpl1Ebujp6TlrLdtLj14pPT093Uop7UkpE8lsGB+fKH0A 1Mr9eZmeZDIDhaDyjqfSiQTNFAxqDD0Nb2Rk/Nki8m0A63TrLzNtjuN8v6enp+KZBhu2Hz27PaVU r+56mOhGKWcrLN6fl+mVHc/9ZwCEg390vLGxiVal1LcAdOjWrzLdSqm9/f39ZW81bcP2oxcJjzf5 YU5ERBot3591vIqf4VswAajy1oK2bZzIeyL4DIBn69avRZRSz5uYmPjL1WwvPXoBqXi7cyZWOapb wbD9WcereBnfAY4P/Bz8o+WNjk5eJoJLdOvXOH/e09OzazXaS49eUBzHGdFdJxPdKKXu0ylv2v5c ay/044BtaAy9497x2/rKP+vWX4EkHMf56rZt29avZHvp0SsX13XvCVOOiUVmmpubbw9b2MT9udbe sicAJjaGHpJHjoytd135BoAmXWOFsqWxsfFTtmw/etHytmzZcieA0E+HY6IbpdRNAwMD02HKmro/ 19pb1gTA1MbQA5RyPg3gWbrGCudtY2NHf28l2kuP3lLZu3dvAcANur8DE8lcFaaQyftzrT3tCYDJ jYm7Z8h1/8C4rvu5ycmpk2rZXl/o0Qv0lFLf0K3HRC6/GR0dvaZSIRv251p6WhMA0xsTZ8+g6/7l snFubv5ztWqvL/TolfVaW9d/H8CvdOszkcpH77333pmlCtiyP9fKAxbfK9jaxsTZO3JkbL2Iuh7A SbrOKueZ09Oz+Vtu2Xegmvb6Ylx/0DPLUwruzMzcMIDX6DpMJLI/m83+4VIFbNqfa+GVEuo7sqY3 Ju7e6OjEl0099R+QY0qp3sHBwbuX215PjOwPemZ6o6OTGRF5ga7HWJ15AL3ZbLbsp/9t3Z+X63nM ypcAyjxVyJjGxN0z+bp/mawD8LVUKlW3nPZ6YmR/0DPXU0q9B0vcFpWJXpRS/8zBP9AEUOESgGfw 958pMKIxcfeK1/2vARBqMDUo3QBUPp+/Sae9nhjZH/TM9oaHhx/t7u5+OoCUrs1YmXsAXJLP5+eC Ftq+Py9ng5x7br8Dz3he6QxA0HIjGhN3z8Dv++vmg319fc8L215PjOwPenZ4hULh/QAe1vUZ6zIt Inuy2eyxoIVR2Z81zUW3/neWKMwjf6M9I7/vr5OE67pf3b17d0u49gIwuj/o2eAdPHhwVETejOMP SmEiGhF5Ty6XOxy0LEr7c1ivzHgefAbAP1PA8T8WYxoTd290dPIywKrr/uWyeWZm5l8qtbcYY/uD nl1eLpe7UUQ+pbsuxppclcvlPh+0wIT9bw28oKf+ChDwGQDfNYLSvxWfKmTxxrHKs/i6f7n0dHV1 Hc7n87+wsT/o2ek1NzcPNDY2vhLA03TXyxide6anp1/x+OOPz/oXmLT/raK36Mjfa6mACsr3umtQ Y2LtjYyMNSvl7Adwuq5neJ5wHOfMtrbmJwKWGdsf9Oz2ent7z1RK3QagQXf9jJGZFpGdQaf+Tdz/ VsHzHuALjh/5L/gWjOOr4L9GwMHfIK94n/+oDf4AsFFE/jvgdaP7g57dXnGg+JDu+hkzU+66v6n7 3yp4/iP/RV+BPTFD2Lz51AUTgExmwL3//gd1123TxrHKGxkZf4tS6s91PYuydXp69ommpobB4s9G 9we9aHjJpLO/uXn9CwGcqluXMSpX5XK5v/C/aPr+t0qeZDIDhaDyjqfSiQTNFAxqTOy8kZHx5yil /lXXszAfHxubPB2G9we96Hinn/7MRDKZfBuAUd36jDG5Z3p6+gr/izbsf6vklR3Pgz4dyMHfIO/R R59oVEpdDaBR17QwTa4rXz5yZCKpW9HW/qW39l5LS9NDjuP8H12DMSLTIrLnzjvvnPS+aNP+t4Ke oMIH+BfdGEB3xRZvHCu8hoaGzyKa1/3LpVcp9VGdCjb3Lz0zvLa25qsBfF3XYtY2Qdf9bdz/Vsir +O29UA8DMqQxsfNGRsbfrpT6vK4ZgbgAXpjNZm+uVNDm/qVnlvfEE6NtiUTiMIBn6LrMmuSqbDb7 Bu8LNu9/a+FVfBiQTY2JkjcyMn5GTK77B8UBEHiXQG9s7l965nkHDx4cBcC7BNqRRdf9bd//1sJL hClkS2Oi4uXzjzfX1dX9EMBJum6E0j4/P9+Vz+evDVpoc//SM9fL5/MPdnd3twB4XmicWe1Mi8j5 hw8ffqj0QlT2v9X2lnUGwNTGRMVrbGz8HOJ13b9c3pJOp3/f/6Lt/UvPbG96evrPARyuCDNrEv91 /7XeX2z2tD8DYHJjouD19vZeHtPr/uXyJIAzstlsHrC/f+nZ4aXT6eeKyCB4l0DTsuC6vyn7i62e 1hkA0xtju1e8NWlcr/uXywYAXwKgbO9fevZ4g4ODdwCI8o23bMzd3uv+Ju0vNnqAxmcATG+M7d62 bdvW87p/2Wzp7u5+sqmpIRewzIr+pWefl8/n92/atOkcAJt118/UPFMAzj906NDDgJn7i01eKaFu uGJ6Y6Lg8bp/xXxidHRyoL19/S88r1nTv/Ss9CSRSLxlfn7+MIAO3d+DqV2K1/1vB4zeX6zwPGbl SwABTxUyqjFR8Hp7ey8H8HpdO2ZpEpGvTE/Plh6DbE3/0rPXa2lpegTAH+nWY2qaK3O53H8C5u8v pnseE0CFSwDlnidsSmOi4BWv+38LIc/GxDwnFQqFusbGhhts6V969ntNTQ13zczMbgVwhq7BVJ27 p6enL3r88cdnbdlfTPWKpgPPeF7pDEDQciMaEwVv27Zt65VS1yAe9/mvSUTwpyMj4+fo1ovC/kJv 7bxEIvFuAA/pOkxVmQKw584775y0bX8xzSuai2797yxRmEf+K+zxuv+y4iilvrpz587WsBWisr/Q WzuvpWXdmOM4l2KJJ6sxtY2IvCebzd5u4/5imldmPA8+A+CfKeD4rTGNaUwUvN7e3neA1/2Xm1Pm 5+f/LUzBqOwv9NbeO3DgwIBS6p90TWZZuTKXy/2nzfuLQV7QU38FCJgR+K4RlP6t+FQhizfOWgz+ ZyqlbgVP/Veb12az2b3lFkZlf6Fnjrdt27b6xsbG2wCcpeszoXP39PR0uqvrKUdh+f5igFf6nF+p vmQyAyfOYqmACsr3umtQY6z3tm3btr6xsTEL4Fm662AWZcR13TOGhoaG/Quisr/QM8/r6+vb5rru IDiBX4lMAdjZ0dFyByKyv6yh5/2Qv8A3+AOeUwOewd8bDv419orX/Tn41yadjuN8CcET2UjsL/TM 8w4cOHCniHxQdz1M5YjIezj418xb8L7oH/wBzwxh8+ZTF0wAMpkB9/77H9Rdt00bZ9W93t7edyil eHvR2mZLd3f3kXw+fysQrf2FnrlePp+/taura7dSincJrF2u7Oxs/TAM6N+IeZLJDBSCyitPpRM/ B80UDGqMlR6v+69oph3HSbe1Nd+FiOwv9Mz3zjrrrE3JZPJ28C6BtcjdMzMzfSedtHE6YFkk9pc1 8gRLfIYv6NOBHPxr7BW/778XHPxXKo2u635tfHyyKWCZdfsLPTu8Q4cOPQLgijBlmSUzBeC1HPxr 7i05+AO+CUCVtxa0beOsmsfr/quS7YWC/JXvNSv3F3r2eNlsdq+IfFX3d2B+m+J1/58HLFrz/rXc q/jtPYUqY/HGWRWveN3/c7rrYZYVV0TO6+xs/Sks3V/o2ecdOzbTMTMzOwTgZN36DK7s6Gh5a8Dr xvRvlL2qJgCmNcY0j9f91yS/VkqdNTg4OKpbca33F3r2eiMj489XSv0QIR6wxpzI3SLu2Z2dbUd9 rxvXv1H1EmEK2dIYk7xt27atr6urywB4mu66mKrSppR6+vDw8Ld1Kq31/kLPbq+pqeHXMzOzTQB2 61oxzZTjqAs6Olof8b1uZP9G1VvWbNXUxpjk8br/2kVE3tjb2/u6sOVN2F/o2e/Nzs5+GMCQrhfH KKXe29a2/g7fy0b3bxQ97QmAyY0xxeN9/tc+SqnP7Ny58+mVypmwv9CLhnf48O0zruu+EcC0Jhur KKWuam9f/0Xfy8b3bxQ9rQmA6Y0xwSte9/8X3XUxNU9HoVD4Epb4nIsJ+wu9aHlDQ0N3AfiArh2j 3K0U3uV7zZr+jZIHaHwGwPTGmODt3r27pVAo8Lq/Odm8adOmseHh4f3+BSbsL/Si6eXz+du6u7t3 Adiiu56IZ8px1AVtbeu91/2t698oeKWEOgNgemNM8aampj4PXvc3KiLy9+l0+rne10zZX+hF1hPX dd8KYER3XVFOwHV/W/vXaq9knntuv6o4AQh4qpBRjTHFS6fTVyilLtZdH7PiaRCRK7dt21YPmLO/ 0Iu2NzQ0NKyUeofu+qKagOv+VvevrZ7HBFDhEoBn8PdfRzWiMaZ4PT09Zyml/qdMXWbt87RkMtm0 bdvpGRiwv9CLhzc8PPzz7u7u0wBs1113xHK346hXNzbWzxV/jkT/2uYVTQee8bzSGYCg5UY0xhRv 9+7dLY7jXAPe7Mf0/N+xsaMvCnjd6v2PntleMpl8N4AHddcfoUw5jrqkrW196WY/kepfW7yiuejW /84ShXnkH8LjdX9r4riu+6Wxscl2z2vW73/0zPZuvfXWcQCXAljWQ9Zsj++6/5r3R1y9MuN58CUA z2kCb4WKDxawdeMs10un01cA+DPddTJrllYAz2hsbPg2IrD/0bPDa2pqGJ6ZmW0AcI5ufZtTvO7/ keKPxvRHDL2gp/4KEDAj8F0jKP3Lwd+Xnp6esxzH2Q+e+rcuSqlLBgcHv6Fbz6T9j55d3vT0bN3U 1MzNAHp0HUtzt+Oos4un/o3rjxh5pYP8Un3JZAZOnI1SARX8R/6uQY0xwtu9e3fL9PT0IHjq39aM Oo5z5oEDBx4KW8Gk/Y+end7o6MSzRXArgCZdz7JMOY7aXTz1b2x/xMDznuEX+AZ/wHNqwDP4e8PB PyC87m992l3X/RJCPg3TtP2Pnp1ee3vLHUqp9+t6tsVz3d/o/oiBt+D9zT/4A54ZwubNpy6YAGQy A+799z+ou26bNs6yPF73j0xO6+7unsjn8/uWKmTa/kfPbm94ePjApk2bdgLYqmvbEM91fyv6Iyae ZDIDhaDyjqfSiQTNFAxqzJp5PT09Z4nIp5azbRgj87e9vb1nllto2v5HLxKeiMhlAJ7U9S3I3UrJ O2FXf8TBKzueB306kIN/QPh9/0imQSn1ta1btzb4F5i2/9GLjpfNZvMiErW7BE4lEs7FbW0t47b1 R4Q9QYUP8C+6MYDuii3eOFoer/tHNme0tbX9nfcFE/c/etHycrnctwB8SXddpsZxnD9ubW0+ZGt/ RNSr+O29UB+CMqQxa+al0+krROSz1W4rxtiIiJyby+VuNHH/oxdNr/htokMATtNdr1mRKzs6Wt9k e3/E0atqAmBaY1bC4/f9Y5OHXdc9c8OGtsmAZZHZn+mZ5aXT6d0i8mNoPJrdsNw9Pz+fPnTo0KRu RRP7I27esnc6ExtTay+VSq1TSv0IwNOWu50Ya9KqlNrY1NTwPd/rkdmf6ZnnDQ8PP9TV1VWvlHqB 7u9gQKaUUucPDQ09rFvR1P6Im1fxccA2NWYFvL8Cr/vHKW8dHz92lufntd7/6MXASyQSHwOQ0623 1lFK/Z/BwcHbdeuZ3h9x8rQvAZjcmFp6vb29ZyqlsmUsJqIRkZ90draei4jtz/TM9sbHjz6rUHBv A7BO11iLiMhXc7ncpcttb8Aio/ojLp7WGQDTG1NDz1FKfQ4c/GMXpdQLRkcnXxmx/Zme4V5ra/M9 SilbbjD2i/n5+T+spr2+GNcfcfAAjQmA6Y2ppZdKpa4AcLbu78BEIyLyyf7+fq3Jn8n7Mz07vPb2 9Z8Vket0rVXOlFJqz+HDh49W295ijO2PKHulhHqTM70xtfSKN4X5qO7vwEQqp05MTFwI4DthCpu8 P9Ozy0skEpe5rns7gI267mqkeN3/jlq11/T+iKLnMSufAQh4qpBRjam1197e/loAT9Wtx0QubwhT yPT9mZ5d3oEDBx4FcLmuuxoRka8ODg5+oZbt1f0d6FXneUwAFSYAnsHf/2FBIxqzQl6oN34m8jl/ z549S35N1pL9mZ5lXjab/Y6IfFHXX+FoX/ePSn9ExSuaDjzjeaUzAEHLjWjMSniFAppFpF+3LhPJ tN53333byi20YX+mZ683MzPzHgD36a5nhaJ93X+ttx+9QHPRrf+dJQrH7cg/OTl59EwADbr1mWjG cZzAe0DYsj/Ts9e78847J13XfROAAtY4utf9Tdh+9BZ6Zcbz4DMA/pkCjj9VyJjGrKBn+T25mVrG dd1O/2uW7c/0LPaGhob2Afg7rGF0r/ubtP3onfCCnvorCFiw6BpBMRWfKmTxxvF6zboGE90opRY8 GtvC/Zme5V5LS8vHRORnuuuuUX6uc93fxO1Hb/Fn+LyWE1DBm4rPE7Z84/g9re+2MtGOiDxa+n9L 92d6lnsDAwPzIrIHwLDu71BljhQKhVeGve5v6vaLuef/ELNkMgMLDmocXwX/BMA1qDEr7hUKhbt1 LSa6EZEcYO/+TC8a3oYNbXlALgIwplt3mTkG4KKDBw/+ci3aS69mnv/I3/WXLXcjIAkqHLGNs8hr bW09ODEx8SSADctpOxOdiMiBoaGhYZv3Z3rR8To6Wg+PjR29wHXd7wFo13U0Mgngomw2e3OUtl/M PclkBgI/TOp4Kp1IHAf/TGZABgYG5gF8aTltZ6IVx3H+2fb9mV60vLa25gOJRKIfwIO6Vsg8AuCF 2Wz2JhPaS69mXtnxPOjTgbEc/D0/fxzAE8vZBkw0IiI/fuyx/NWIxv5ML0Jea+u6w4lEIo2Qt6nW yPdc1+3JZrOhHkts6/aLmVfxM3zKUxnLWbHFG6esl06nzxOR76P8JRImunkAwDkdHS2PByyzcn+m F00vnU5fLCL/AOAZuuvw5GER+bNcLnel6e2lV3tPocqY1Jhaer29va9QSn0d/GpgnHIYwEUdHS1B n7i2en+mF02vv7+/cWJi4i0A/gjANoTPHQD+o6Wl5b8HBgambWkvvdp6VU0ATGtMrb0dO3Y8q1Ao fA5AfzXbiTE+swD+uaWl5a+SScwHLI/E/kwv2l4qlTpDKfUyADtF5HQAJwFoBDAD4DGl1N0A9onI 9dls9rDt7aVXvbfsCYCJjVkpr6+v71zXdd8F4AIA9cvdZoxxySulvqaU+re2tuaHYej+R48ePXor 4S3rGrepjVkpr62t+UcAfjw1NdM6MzPXD8hOEWzD8VsHPw1AC4C65WxLZlUyDWBERB5RSv1SRA46 jvPjwcHBQQCu6fsfPXr06K2Ep30GwOTGRNFLp9OvFJHv6K7HghRE5Nm5XO5enUpr3R/06NGjFxWv 0uOArWpMFL3R0dHrAYzrrsuCJJRSf6ZTwYT+oEePHr0oeIDGBMD0xkTVu/fee2eUUt/VXZ8lubSv ry/UV5hM6Q969OjRs90rJdQEwPTGRN1zXfca3XVakjrXdd9XqZBp/UGPHj16tnol89xz+1XFCUCZ pwoZ05g4eOPj4zdg9R4Estq5fPv27aeWW2hif9CjR4+ejZ7HBFDhDIBn8Pd/WNCIxsTFu/fee2cA XKu7fkvSmEgk/l/QAlP7gx49evRs84qmA894XukMQNByIxoTN89xnK/p1rEov5dOp8/zvmB6f9Cj R4+eLV7RXDCeZzIDopYo7D3yL/1rRGPi6E1OHq2bm3PvAXCKbn1L8nMAZ2Wz2Tkb+oMePXr0LPJK g3+pvmQyA5IoU6F0msA7QSgY1JjYefX19Zienm0H8EJdw5I8BcDotm2n74cF/UGPHj16lnhBT/0V IOBGQL5rBKV/Ofgb4I2PH31GoeD+Epr3b7Ao4/X19c9pbm74je91I/uDHj169Az3Sgf53iN/t1Qm EVDBf+TvGtSYWHsNDfXj09OzuwBs0fUsSYPrFjY2NjZ473tgbH/Qo0ePnsGe/wz/gsEf8BxJegZ/ bzj4G+aJyBd0PZsigjeNjk7sLLXX9P6gR48ePUO9BeO5f/BHmZUCATMFAxpDLzMgW7du/U5bW9vj OH7NPIpRIvjPY8dmUz/72c/mdCvb3r/06NGjV2NPMpmBQlB5x1PpRDj4m+sV7wnwOV3bsjx7dnb2 H3QrRaF/6dGjR6/GXtnxPOjTgRz8zff+A4D20bFNEZF39fb2vjRs+Yj1Lz169OhV6wkqfIB/0Y0B dFds8cax1stms3kAe3XXY1uUUl9MpVIbK5Vb6/6gR48ePQO9it/eU6gyFm8cq72+vr4+13Vv012f hfl2Npt9dbmFpvQHPXoBnkqlUtcBOF/XtSwFEfmdXC73S92Klvev9V5V3yc3rTFx8g4cOHBAKbVP d50W5vfS6fRlQQtM6g969PxeKpX6KKI/+APAlRz87fSWPQEwsTFx81zX/ZTuem2MiPxLKpVacO8D E/uDHj38dvB/OYAP6boWplAoFP5Gt5Lt/RsVb1kTAFMbEzdvy5Yt3wSgPfO2MOsBXJNKpdYB5vYH PXqZzIDs2LHjNABfRQ0usZoepdTXDx48qPUeZHv/RslL6BQ2vTFx8+666y7p6uqaVEq9Uvf3sDBd AJ6VTDrf3Lhxg5H9QY9ef39/4/T09A0ATtO1LYyrlHrd8PDwk2Er2N6/UfO0zgCY3pg4eu3trV8H 8CvdupZmz9OedtJfBbxuTH/Qi7WnJiYmvgqgR9e2NFcPDg7eHbZwBPo3Uh6gcQbA9MbE1VMKMjMz NwPgAl3D0rxgenr2F01NDXcVfzaqP+jF10ulUp8E8HZd29K4InJxPp9/IkzhKPRvlLxSQl2jMr0x cfdGRkYblEr8AsAmXcvSTCUSiRe3tq7bb2J/0Iufl0ql3gng07q2rVFKXT04OHhxmLJR6N8oeR6z 8iWAYsGgMwVGNIYe0NnZPgNA+9a5FqepUCj8z5NPjnXpVrSxf+mZ7fX29l4I4F91bYsjSqm/DlMw Cv0bJc9jAqhwBsAz+PvLGdEYer/15ufRMDExcQ+AZ+i6FidbX1///H379k2FKWxz/9Iz0yvekOsm AM26vsXZm81mX1upUBT6N0pe0Swd9AtQ+QxA0HIjGkNvoTcwMDAN4MO6ruVJzc7Ofmfr1q0NlQra 3r/0zPP6+vq2u677A8Rr8J8RkT+vVCgK/Rslr2guuvW/s0RhHvlb5mWz2a8COKzrW57z29ravrVt 27b6cgWi0r/0zPFSqdQZrutmAHTo+pbnn3O53L1LFYhC/0bNKzOeB58B8M8UcPx0gTGNoVfWc5VS f6a7jgjkgoaGhr2pVKrOvyBi/UvPAK+3t/d3AGQAbND1Lc8jc3NzS971Lwr9G0Ev6Km/wZcAioO/ f6ZQ8alCFm+cSHmDg4PXAbhJd122Ryl1kVLqG/39/Se2lwn9QS9a3vbt25+plPoRgKfq+rZHKfW+ w4cPHy23PAr9G0Fv0ZG/11IBFZTvddegxtAL4RU/mHQrYnAr0oBcs3nz5tcfOfK4C0P6g140vFQq dQaA6wF06/oRyE+z2ewLyi2MQv9G0PN+e09w/Mjf9ZZL+CqUBozSvxz8LfSGh4eHu7q6tiilztJd dwSy7ciRI1uOHp383rp16/zbKhL9S29NBv9zAPwQwFN0/Qik4Lruqx599NHHghZGoX8j6vmP/F1/ 2WQZQ4IKR2zjRNqrq6t73/z8/EUA2nR/hwjkDclkQ/3IyOhlxXskABHrX3qr5/X29r4CwNUAmnT9 iOTzQ0NDh4IWRKF/Y+BJJjNQCCrveCqdCAd/+71bb731MQAf0f0dohIR2aNU4vqjR6c7YUB/0LPT 6+3tfYtS6luI7+D/ZH19feBjjaPQvzHxyo7nQZ8O5OAfEe+kk57yOQB36NaNUHbPzs79dGRkfItu RRv6l97KeqlU6kNKqf9G+TOlcciH9u3bN+J/MQr9GwNPUOED/ItuDKC7Yos3TuS9mZnpAoB369aP WJ6plNqXTqd3h61gS//SWxkvlUqtS6VSVwMIdbvbqEYpNZjNZj/vf932/o2RV/Hbe1V/StzijRMb b3R08ksi8npdK2KZEZE353K5q5cqZGP/0qudl0qlTgbwHcTnkb7lMu26bmpoaOgu74u29y+9han4 MCCbGkMv2HPdwnsBhHpsZ4TToJT6eiqV+mC5Arb2L73aeMVP+h8AB38A+BAH/+h7iTCFbGkMvWDv llv2H920adPDAH5f141YFIAXd3d3P7e7u/uGfD5f+oaA1f1Lr3ovnU7/EYArAbTq2hHMT7PZ7B+g +MAYwP7+pRecZV0CMLUx9Jb2UqnUdwC8UtePaB4UkUtyudz+qPQvPX1vfPxY5/z8/BeVUhfpuhHN pOM4Zx04cOD+0gs29y+9paN9CcDkxtCr6P0hgCO664hoTlVK/TSVSn1wcvJoXcByG/uXnoZ35MhE f6FQOMzB/7dRSv0pB//4eFqXAExvDL2lvXw+P9nd3f0ogFfpriuicQC8uFBwn1couD+qr6+bLL5u Zf/SC+cVCsD4+OTHAHwePOXvzQ+y2ex7Sz/Y2r/0wif0BMD0xtAL5+Xz+UPd3d07ADxTd51RjVJq s+u6b5ienr29qanhHpv7l97S3sjI+HPm5uauFZHXIZ7PyiiX0fn5+Zc+9thjE4C9/UtPL6H+AExv DD09b+fOnU+bn58/jBg+0axCBMBnAPx5NpsdC1vJtP6lt9h78skj9UolPqiUej+AOl0z6hGRN+Vy ua8BdvYvvWWZlScAnqcK+csa0Rh6y/PS6fTLROR74FFQUB4TkT8tvSEuFVP7l95vMzZ29Hmu634W wLN1vThERL6Zy+VeA9jZv/SWZQKocAmAg390veHh4Xs3bdrUDuBs3d8jBlmvlHp1d3d3f1dX1235 fD7wHgom9y89YGpqrvPo0WOfEJF/Qzyf4hcm99TV1V34yCOPzNjWv/T0c+65/Q484/mSE4DNm08t Df7eCYARjaFXvTc7O/sTEVwI4CTd+jHJqUqpd3R3d6/r7u7el8/n50oLbOjfuHrT07N1k5NT75qf n78GwPPBs1zlMuk4znm33Xbbwzb1L72qBv8TyWQGRC1R2HvkX/rXiMbQq503NjZ5uuvKrQDW6Tox y6+UUu8ZHBy81qb+jZs3Nnb0Fa7rfhz8kGuYvDabze61qX/pLdsrDf6l+lJ2AuA5TeBdXvHBAhZv nFh7o6OTbxKRL+haMc1+pdTH2tvXZ3yvG9u/cfDGx49ud135uIi8SNeIaf4xm82+z5b+pVeTwR84 PgGQkqUCKnivEZT+5eAfcW9kZPwzSqkrdM24RkT2JZPJj7W2rvsRLOjfqHrj48fOLhQKHwJwgW79 GOfGzZs3n3/kyOMuDO9felV7pcv83iN/t1TGCajgjYCDfyy8mZmZdwO4VdeNa5RSuwqFwnVHjkzc ODIy/ru69W3fX9ba6+3t3TUyMv79QqHwM3Dw18lDrutezME/Fp7/M34LBn/AcwagWMF/5O8a1Bh6 K+zt3Lnz6fPz81nw/gDaUUr9REQ+ms1mb6pUNir7yxp4Kp1OnysifwrgfN3fg8GM4zjPb2trHoSZ /Uuv9p73yL/gL1tuAgD/TMGQxtBbYS+VSv0ugB+iiidFxjx3AvhcoVD46sGDB0f9C9e6f230UqlU G4C3AHgngGfp/g7MiVze0dHyBRjWv/RW1Ctd8y8ElVeeSid+5uAfby+VSv0pgE/qro9ZkGMArgHw 2Ww2eytgTv/a4qVSqTNE5F1KqTcCaNZdP7Mgn+3oaHknDOpfeqviLXkZ3z8BQJV3F7Jt49Ark1Qq 9V8A3qa7XiYwhwB8bt26pm80NCQnfcsisb/Uyuvr6zupUChc7DjOG0QkrbteJjDXnnLKya8ZHz8S 9K0vq/cXekt6FT/Dt2ACwMGfXin9/f3J8fHx65RS5+qunymbSaXUdQD+F8B17e3rn4zK/lKNt3v3 7pbp6elXA3gDgBeBl59qmZtbWlrOTyYxH7DMyv2FXu28qu+QZVJj6NXWK157/RmA5+j+HkzFzAH4 KYDvFgqFaw8ePPhgmEom7y86XiqVOhnABSLyMqXU+QAaa7BNmYW5c25u7gVPfWrnRMAyq/YXeivj VTUBMK0x9GrvHTkyvgVQNwN4mm59Riu3i8h3lVL/CyCXzWbn/AVs2F/KeUeOTCRF5PlKqZfh+Nf2 OKlc2fy6UJjfvXFjx2MBy4zfX+itjrfsCYCJjaG3YrdX7XNdNwOgSddhlpUpADkcvy/Dfsdx9re1 NT8MS/YXABgZGXtqIpHc6bruDqXUruL1fN5uenUyAuCcjo6WewOWGbm/0Fsbb1kTAFMbQ2/lvNHR yZeJyP+Az1JfqwwDOOA4zq0iMqiUuu++++791cjIkYIuVMv9Zc+ePYn77rtvs1Jqm+M4vyPiniGC swGcttYbLKY55rrueRs2tB0IWGbs+wu9tfG0JwAmN4beynqjo5OvE5Er4buDJLNmmQXwawAPKKUe EJEHROSBRCJx//z8/INDQ0NPAljwlV7d/aW/v7/x2LFjXSLSVSgUTlJKnSQi3UqpZwH4HRx/6E7D Wm8IBgAwLyKv7uxsvT5omenvL/RW39OaAJjeGHor76XT6StE5LO6NrMmKQAYLf43DmASwLRSahbA nIgrgHJw/AN4DQH/bgDQttaNYMJFKfW29vb1Xw1YZM37C73V8wCNCYDpjaG3el4qlfozAH+vuw6G YVYkAuCdxbv8+WPd+wu9lfdKCfV9W9MbQ291vXw+f3N3d3cTgHN018UwTE3jisjbOztbvxywzMr3 F3or65XMzZtPVRUnAJ6nCvnPFhjRGHpr4+Xz+Ux3d3crgF2662QYpiYpALi0s7P1GwHLrH5/obcy nscEUOEMAAd/eksln8/f0NXVtU4ptVt33QzDVJU5pdQlHR0t3wpYFon3F3orMvg78IznlT7NHbTc iMbQM8PL5XIfUEr9ne76GYZZdmZE5DXt7euvDVgWqfcXerXxiuaC8TyTGZDkEoV55E8vVNrb139o dHTCFcGHdOsyDKOVqeJX/X4UsMyI9wN6RnqlwX9B/USZCqXTBN4JQMGgxtAzzGtsbPjxzMxcAUC/ rsEwTKgcBfCKzs7WgYBlRr0f0DPK85/Jl5KVCKjgvUZQ+peDP72KXmNj/U9nZuYeB/AS1OBBUwzD nMg4gJd3dLT8LGCZke8H9IzwFp3J91qJgAr+I3/XoMbQM9xrbKzfPzMzdweAV5ZZH8MwevmVUuq8 jo6WgwHLjH4/oLemnv8AXzKZgQV3BnV8FfxHbRz86Wl7g4OD33Qc5yUAxnRthmEWZP/8/PzO9vb1 vwhYZsX7Ab018/xH/q6/rPJVUksVjtjGobfCXm9v75lKqesBdOmuh2HiHhH5Rmtr62XJJOYDFlv3 fkBvTTzB8SP/wIeGOZ5KJ8LBn14tvFwud9h13V0A7tRdF8PEPB97/PHH3sDBn14NvLLjedCnAzn4 06uZNzQ09KvGxsZdAL6nu06GiWFmALyho6Plo6ef/sygb2lZ/X5Ab1U9QYUP8CcAYPPmUxWw8NOB BjaGnqXeQw89NJvP57/R3d3dDOB5uutnmJjkN47jXNDevv46GPT3S89ar+K396r+qpbFG4feGni9 vb1vVUp9FkC9bl2GiXDuLBQKF27c2P4rGPz3Sy9aXlUTANMaQ88Ob3R0creIXA3gqboGw0Qw/5NM Jt/W0tI0AQv+fulFx6v0LACrGkPPDq+9ff0tSqkdAG7WdRgmQplWSv1BNpvdw8Gf3lp4FR8HbFNj 6NnjNTbWT9TXN3x5enqmQSn1PPDOgUy88nMAL8lms9+38e+XXjQ87TMAJjeGnl3eTTcNzOVyuQ8A eAWAEV2bYWyMiHwRQDqbzd5u898vPfs9raMu0xtDz14vlUqdDOAaADt118MwlmQCwB9ks9mrgGj9 /dKzzwM0LgGY3hh6dnv5fH6su7v7yyLiKKV2o4rPpzCMgcmKyHm5XO7HwNr/vdGLt1dKqDMApjeG XrS8np6eXY7jfBXAFt11M4xpUUp9ampq6gN33nnnLGDe3xu9eHkes/IEoNwjBU1pDL1oemeeeWZz XV3dPwO4XPd3YBhDcp/rulcMDQ39qPSCqX9v9OLheUwAFU6zcvCnt1be4cOHj3Z0tFwB4FUAHtP9 XRhmDTMP4BP19fVncPCnZ4pXNB14xvNKz2sPmiAY0Rh68fA6Olq+PzU1d9b09NTHAfUWXYdhVjMi ckBELh8aGjrkfd2Wvzd60fSK5oLxPJMZkOQShXnkT88Ir6mpbqSpqe4dY2NHv+y67mcBnK5rMswK ZxLAh3K53L/B9/Q12/7e6EXSKw3+C+onylQonSbwTgAqPljA4o1DzwLv5pt/9mBzc/N/NjY2CoBd WOaNrBimxvkegJdns9kb4HuDtfnvjV5kvKCn/goQ8CFA3zWC0r8c/OkZ5fX29v6OUuo/APTrrodh apTHROTduVzumqCFUfp7o2etVzpIKtWXTGbgxBkqFVDBf+TvGtQYevQWpLe399VKqX8EcJruOhlm mZkB8OnZ2dm/uf32248EFTDl74NerD3vGVKBb/AHPAO9Z/D3vs7Bn57x3tatWxva2tr+GMBfAGjR XT/DhIwrIleKyIeHhoZ+Va6QaX8f9GLteY/8C/6y5SYA8M8UDGkMPXpl09fXd1KhUPhbpdRbwDsJ MjWMUup613U/kMvlDi9VzuS/D3qx9EpH/oWg8o6n0olw8Kdno9fW1vxYZ2frHziOSgP4rm59hvFH KTUI4EWDg4Mv4+BPz1Kv7HjuLyzLWbHlG4dexLy2tvV3AHjN+PixdKFQ+CiA83U9Jva5V0T+IpvN 7oXvk/1Bsenvg15sPEGFD/AvujGA7oot3jj0Iu61tq7bn81mX+K67gsB/FTXZWKZvIj8EYDnFD/d z8Gfnq1exW/vhXoYkCGNoUevKq+np+fFjuN8AMB5uuthIp87ROSfZmZmrio9tCdMovT3QS9+XlUT ANMaQ49eGC+dTve4rvt+pdQe8GZCsY5S6kbXdf8xl8tdp1vXlP2ZHr3lesueAJjYGHr0dLwdO3ac 5rrun4jIZQCadH8HxtrMKaX2irj/r6OjNReV/ZkePV1vWRMAUxtDj95yvHQ69RQRXAbgHQA269Zn rMmY46j/KhTcf+/sbH0Ehux/9Oitlac9ATC5MfToVeMdPXpMzc4WzsPxicDLwcsDUcldjuP8d1NT wxfr65MTxdeM2//o0VttT2sCYHpj6NGrlTcxMbVpfn7+cgCXAXi6rs2seX4D4OtKqava29cP+ZYZ v//Ro7fSHqAxATC9MfTorZDnpNPpF4jIGwG8BkCb7rqYVcs0jt8A6iutrS03JILP39i2/9GjtyKD PxByAmB6Y+jRWw1v69atDe3t7RcWJwMXAKjXXTdT8wiAmwF8BcDebDY7Zsr+Qo+eiZ7HrDwB8DxV yF/WiMbQo7cW3vbt29sdx3m5UupVAF4KYL3u78IsO6KUyorIdxOJxNduu+22B0oLTN1f6NEzwfOY ACpMADj406NX2RsZGW1IJOp+13ULrwDUhQC6dC2mYp4A8AMRuV5EfjA0NPS4v4At+ws9emvhFc3S 3X8FqDwBKA3+3nJGNIYePRO9u+/+ZeGkk7pTruu+GMCLAOwGsE7XZ+AqpW4Vkesdx7nuwIEDWSzx UBNb9xd69FbDK5reW/9LJjMgySUK88ifHj1N76GHHpGHHnrkAIADAD6+bdu2+vr6+rMdxylNCHYC qNNdZ0zyEIAbReS6hoaGH+7bt28kTCWb9xd69FbJW3DkX4oqU8HB4iP/ig8WsHjj0KO3Kt7WrVsb Wltbe5RSOwCU/tuKGjyXw7LMAhhSCvuUcvbPzc3ecvDgoYd1EdP6lx49A70FR/7wPPVXBVRwPK+X /uXgT4/ein2GYKzDcRJpAD0i7u8A6tkAng2gWdc0NE8COKyUOiQidyqF2123cGdnZ/tMLbZfwCJ6 9Oj99jN8wG+P/CWTGThxKU0FVPAf+bsGNYYevbh4avv27ackk8nniMhzADwLwCkATi7+Z9rnCqYA 3Afgl0qpe13XvVcp9UvXde8eGhoajkB/0KNnm+e9E0bpyH/B52iUr4L/yJ+DPz16Bno7duzYUCgU TgFwslLq6YBsBNApIp2A6hCRDqVUB4AOAI04fs+CeoS7vfE8jg/o4wDGAIyW/lVKjQDIu647DGBY KTWcSCSGb7vttidt2n706MXE8x75F/xly00A4J8pGNIYevToVec5/f399VNTU/Xz8/P1rusqx3Fm AcwBmOvoaJmPWHvp0YuzVzryLwSVV55KJ37m4E+PHj169OhZ7wmW+AzfosJV3l3Ito1Djx49evTo RdFbcvAHFn49ABz86dGjR48evUh4Fb+9V/V3jy3eOPTo0aNHj15svaomAKY1hh49evTo0aMXzlv2 BMDExtCjR48ePXr0wmVZEwBTG0OPHj169OjRCxftCYDJjaFHjx49evTohYvWBMD0xtCjR48ePXr0 wiX0BMD0xtCjR48ePXr0wifUBMD0xtCjR48ePXr0tMyFNwJaomDQA0SMaAw9evTo0aNHT8sEUOEM gGfw95czojH06NGjR48evdBm6aBfgMpnAIKWG9EYevTo0aNHj15oc9Gt/5NLFOaRPz169OjRo2e/ t+DIv5RkmQr+I39BiAcLWLxx6NGjR48evSh6i8bzkuUEVHCw+Mifgz89evTo0aNnl7foTL7XSgZU 8EYAuAY1hh49evTo0aNX2fN/e08ymQHX+4Ljq+CfAHDwp0ePHj169Ozz/Ef+rr9suQ8BSlDhiG0c evTo0aNHL+qeZDIDhaDyjqfSiXDwp0ePHj169CLhlR3Pg2YK1dxdyMaNQ48ePXr06EXNq/jtvUU3 BtBdscUbhx49evTo0YuqV/HbewpVxuKNQ48ePXr06MXWq2oCYFpj6NGjR48ePXrhvGVPAExsDD16 9OjRo0cvXJY1ATC1MfTo0aNHjx69cNGeAJjcGHr06NGjR49euGhNAExvDD169OjRo0cvXEJPAExv DD169OjRo0cvfEJNAExvDD169OjRo0dPy1z8OOAyBRMBi4xoDD169OjRo0dPywRQ4QyAZ/D3lzOi MfTo0aNHjx690GbpoF+AymcAgpYb0Rh69OjRo0ePXmhz0a3/k0sU5pE/PXr06NGjZ7+34Mi/lGSZ Cv4jf0GIBwtYvHHo0aNHjx69KHqLxvOS5QRUcLD4yJ+DPz169OjRo2eXt+hMvtdKBlTwRgC4BjWG Hj169OjRo1fZ8397TzKZAdf7guOr4J8AcPCnR48ePXr07PP8R/6uv2y5DwFKUOGIbRx69OjRo0cv 6p5kMgOFoPKOp9KJcPCnR48ePXr0IuGVHc+DZgrV3F3Ixo1Djx49evToRc2r+O29RTcG0F2xxRuH Hj169OjRi6pX8dt7ClXG4o1Djx49evToxdaragJgWmPo0aNHjx49euG8ZU8ATGwMPXr06NGjRy9c ljUBMLUx9OjRo0ePHr1w0Z4AmNwYevTo0aNHj164aE0ATG8MPXr06NGjRy9cQk8ATG8MPXr06NGj Ry98Qk0ATG8MPXr06NGjR0/LXPw44DIFEwGLjGgMPXr06NGjR0/LBFDhDIBn8PeXM6Ix9OjRo0eP Hr3QZumgX4DKZwCClhvRGHr06NGjR49eaHPRrf+TSxTmkT89evTo0aNnv7fgyL+UZJkK/iN/QYgH C1i8cejRo0ePHr0oeovG85LlBFRwsPjIn4M/PXr06NGjZ5e36Ey+10oGVPBGALgGNYYePXr06NGj V9nzf3tPMpkB1/uC46vgnwBw8KdHjx49evTs8/xH/q6/bLkPAUpQ4YhtHHr06NGjRy/qnmQyA4Wg 8o6n0olw8KdHjx49evQi4ZUdz4NmCtXcXcjGjUOPHj169OhFzav47b1FNwbQXbHFG4cePXr06NGL qlfx23sKVcbijUOPHj169OjF1qtqAmBaY+jRo0ePHj164bxlTwBMbAw9evTo0aNHL1yWNQEwtTH0 6NGjR48evXDRngCY3Bh69OjRo0ePXrhoTQBMbww9evTo0aNHL1xCTwBMbww9evTo0aNHL3xCTQBM bww9evTo0aNHT8tc/DjgMgUTAYuMaAw9evTo0aNHT8sEUOEMgGfw95czojH06NGjR48evdBm6aBf gMpnAIKWG9EYevTo0aNHj15oc9Gt/5NLFOaRPz169OjRo2e/t+DIv5RkmQr+I39BiAcLWLxx6NGj R48evSh6i8bzkuUEVHCw+Mifgz89evTo0aNnl7foTL7XSgZU8EYAuAY1hh49evTo0aNX2fN/e08y mQHX+4Ljq+CfAHDwp0ePHj169Ozz/Ef+rr9suQ8BSlDhiG0cevTo0aNHL+qeZDIDhaDyjqfSiXDw p0ePHj169CLhlR3Pg2YK1dxdyMaNQ48ePXr06EXNq/jtvUU3BtBdscUbhx49evTo0YuqV/HbewpV xuKNQ48ePXr06MXWq2oCYFpj6NGjR48ePXrhvGVPAExsDD169OjRo0cvXJJhCwasfNFNBlDdHQPp 0aNHjx49eqvkaZ8BKLNy1Lgx9OjRo0ePHr0V9LTOABRXHvSgoGruGEiPHj169OjRW0UP0L8EsOiR guXuMESPHj169OjRM9YLPwE4N+ARwcu9YyA9evTo0aNHb808BYT8DEDAypd9u2B69OjRo0eP3pp5 J8b9imcAvIWLWfbtgunRo0ePHj16a+opFC8jqBCFF6TGjaFHjx49evTorbKXyQxI6M8AVLNievTo 0aNHj55Z3v8P4v6Hg+lFiX4AAAAldEVYdGRhdGU6Y3JlYXRlADIwMTgtMTAtMjFUMDY6MDI6MTMt MDU6MDBk3EUTAAAAJXRFWHRkYXRlOm1vZGlmeQAyMDE4LTEwLTIxVDA2OjAyOjEzLTA1OjAwFYH9 rwAAAABJRU5ErkJggg== "
       preserveAspectRatio="none"
       height="640"
       width="640" />
  </g>
  <g
     inkscape:groupmode="layer"
     id="layer2"
     inkscape:label="Calque 2"
     style="display:inline"
     transform="translate(0,-1036.3622)">
    <path
       style="fill:#d1cc73;fill-opacity:1;stroke:none;stroke-width:60;stroke-linecap:round;stroke-linejoin:round;stroke-miterlimit:4;stroke-dasharray:none;stroke-dashoffset:0;stroke-opacity:1"
       d="m 8.3523998,1037.8802 a 6.6000727,6.6000727 0 0 0 -4.7921675,1.8597 6.6000727,6.6000727 0 0 0 -1.4628252,2.1236 l 2.3873057,0 a 4.559182,4.559182 0 0 1 0.5323395,-0.6228 4.559182,4.559182 0 0 1 3.3103476,-1.2847 4.559182,4.559182 0 0 1 3.1187831,1.3646 l 0.07049,0.074 a 4.559182,4.559182 0 0 1 0.703151,0.9947 l 2.188821,0 a 6.6000727,6.6000727 0 0 0 -1.439327,-2.4268 l -0.10195,-0.1067 a 6.6000727,6.6000727 0 0 0 -4.5149654,-1.9754 z m -6.468881,8.6381 a 6.6000727,6.6000727 0 0 0 1.5091673,2.5279 6.6000727,6.6000727 0 0 0 9.3052389,0.2195 6.6000727,6.6000727 0 0 0 1.472419,-2.0791 l -2.290184,0 a 4.559182,4.559182 0 0 1 -0.551007,0.6343 4.559182,4.559182 0 0 1 -6.4278901,-0.1517 4.559182,4.559182 0 0 1 -0.8022943,-1.1509 l -2.2154498,0 z"
       id="path4164"
       inkscape:connector-curvature="0"
       inkscape:export-xdpi="3.0699999"
       inkscape:export-ydpi="3.0699999" />
    <path
       style="fill:#d1cc73;fill-opacity:1;fill-rule:evenodd;stroke:none;stroke-width:1px;stroke-linecap:butt;stroke-linejoin:miter;stroke-opacity:1"
       d="m 0.37147085,1046.0392 c -0.0566323,0.2706 -0.0296585,0.5102 0.33757388,0.6246 l 4.65007717,0 c 0.3478159,-0.056 0.5483228,-0.2374 0.4472858,-0.6751 l -2.0676389,-2.9876 c -0.3009338,-0.2037 -0.6002626,-0.411 -1.1646289,0 z"
       id="path4193"
       inkscape:connector-curvature="0"
       sodipodi:nodetypes="ccccccc"
       inkscape:export-xdpi="3.0699999"
       inkscape:export-ydpi="3.0699999" />
    <path
       style="display:inline;fill:#d1cc73;fill-opacity:1;fill-rule:evenodd;stroke:none;stroke-width:1px;stroke-linecap:butt;stroke-linejoin:miter;stroke-opacity:1"
       d="m 10.508881,1042.9731 c -0.05663,-0.2705 -0.02966,-0.5102 0.337574,-0.6245 l 4.650077,0 c 0.347816,0.056 0.548323,0.2375 0.447286,0.6751 l -2.067639,2.9876 c -0.300932,0.2036 -0.600263,0.411 -1.164629,0 z"
       id="path4193-4"
       inkscape:connector-curvature="0"
       sodipodi:nodetypes="ccccccc"
       inkscape:export-xdpi="3.0699999"
       inkscape:export-ydpi="3.0699999" />
  </g>
  <g
     inkscape:groupmode="layer"
     id="layer3"
     inkscape:label="Calque 3"
     style="display:inline"
     transform="translate(0,-1036.3622)" />
</svg>
