type,unlock_type,"obtainable
",description
0,0,1,Default Title
3,0,1,Stay logged in for {{TIME}}. (Without logging out)
4,0,1,Stay logged in for {{TIME}}. (Total play time)
6,0,1,Trade {{MONEY}} to another player.
7,0,1,Receive {{MONEY}} from another player.
8,0,1,Die {{VALUE}} times by a monster.
9,0,1,Reach level {{VALUE}} without dying.
11,0,1,Kill {{VALUE}} monsters.
16,0,1,Join {{VALUE}} full parties.
17,0,1,Kill {{VALUE}} people in the PVP arena without dying. 
18,0,1,Die in PVP Arena {{VALUE}} times in a row.
19,0,1,Participate in {{VALUE}} arena.
20,0,1,Participate in {{VALUE}} KQs.
21,0,1,Win {{VALUE}} KQs.
22,0,1,"Fail {{VALUE}} consecutive KQs.
"
23,0,1,Sell {{VALUE}} items to NPC.
24,0,1,Buy {{VALUE}} items to NPC.
27,0,1,{{VALUE}} successful enhancements without logging off.
28,0,1,{{VALUE}} unsuccessful enhancements without logging off.
29,0,1,Successfully enhance {{VALUE}} items to +3.
30,0,1,{{VALUE}} unsuccessful enhancements without logging off.
31,0,1,Successfully enhance one item to +{{VALUE}}.
32,0,1,Destroy {{VALUE}} item during enhancing without logging off.
34,0,1,Have {{VALUE}} friends on your friends list.
40,0,1,Complete {{VALUE}} quests. (Repeatable do not count)
41,0,1,Stay silent for {{TIME}} consecutive hours.
42,0,1,Shout {{VALUE}} times.
43,0,1,Obtain {{VALUE}} titles.
45,0,1,Reach level {{VALUE}} as a Fighter.
46,0,1,Reach level {{VALUE}} as a Cleric.
47,0,1,Reach level {{VALUE}} as a Archer.
48,0,1,Reach level {{VALUE}} as a Mage.
57,0,0,Participate in the closed beta testing.
58,0,1,Win {{VALUE}} times at the Dice Game.
60,0,1,Reach level {{VALUE}} as a Trickster.
61,1,1,
62,1,1,
63,1,1,
64,1,1,
65,1,1,
66,1,1,
67,1,1,
68,1,1,
69,1,1,
70,1,1,
71,1,1,
72,1,1,
73,1,1,
74,1,1,
75,1,1,
76,1,1,
77,1,1,
78,1,1,
79,1,1,
80,1,1,
81,1,1,
82,1,1,
83,1,1,
84,1,1,
85,1,1,
86,1,1,
87,1,1,
88,1,1,
89,1,1,
90,1,1,
91,1,1,
92,1,1,
93,1,1,
94,1,1,
95,1,1,
96,1,1,
97,1,1,
98,1,1,
99,1,1,
100,1,1,
101,1,1,
102,1,1,
103,1,1,
104,1,1,
105,1,1,
106,1,1,
107,1,1,
108,1,1,
109,1,1,
110,1,1,
111,1,1,
112,1,1,
113,0,1,Reach level {{VALUE}} as a Crusader.
114,2,1,Finish the Slime Puzzle {{VALUE}} times.
115,2,1,Finish the Honeying Puzzle {{VALUE}} times.
116,2,1,Finish Honeying Puzzle and Slime Puzzle {{VALUE}} times.
117,2,1,Finish first during the winter race.
118,2,1,Finish second during the winter race.
119,2,1,Finish third during the winter race.
120,2,1,
121,1,1,
122,2,1,Finish the labyrinth.
123,2,1,Finish the labyrinth under 1 minute 30 seconds.
124,2,1,Finish the labyrinth under 1 minute 10 seconds.
125,2,1,Finish the labyrinth while being transformed as Helga.
126,2,1,Finish the labyrinth while being transformed as Malephar.
127,2,1,Finish the labyrinth while being transformed as Jack-o'-lantern.
128,0,1,
129,0,1,
130,0,1,
131,0,1,
132,1,1,
133,1,1,
134,0,1,Kill {{VALUE}} shiny monster.